%YAML 1.1
%TAG !u! tag:unity3d.com,2011:
--- !u!114 &11400000
MonoBehaviour:
  m_ObjectHideFlags: 0
  m_CorrespondingSourceObject: {fileID: 0}
  m_PrefabInstance: {fileID: 0}
  m_PrefabAsset: {fileID: 0}
  m_GameObject: {fileID: 0}
  m_Enabled: 1
  m_EditorHideFlags: 0
  m_Script: {fileID: 11500000, guid: 9a996c467cfaeb84ba5cd19a0b084ada, type: 3}
  m_Name: OutdoorWallDavyGlass_2.4x0.88x0.008m_diff.ir.daff
  m_EditorClassIdentifier: 
  directivityFileSource: /Resources/Directivities/DavyDirectivityFiles/scene02/OutdoorWallDavyGlass_2.4x0.88x0.008m_diff.ir.daff
  azimuth: 0
  elevation: 0
