%YAML 1.1
%TAG !u! tag:unity3d.com,2011:
--- !u!114 &11400000
MonoBehaviour:
  m_ObjectHideFlags: 0
  m_CorrespondingSourceObject: {fileID: 0}
  m_PrefabInstance: {fileID: 0}
  m_PrefabAsset: {fileID: 0}
  m_GameObject: {fileID: 0}
  m_Enabled: 1
  m_EditorHideFlags: 0
  m_Script: {fileID: 11500000, guid: dc639d56c028c3c4884c52256c58467d, type: 3}
  m_Name: glazing_SGG PLANILUX 4 (6) SGG PLANILUX 4
  m_EditorClassIdentifier: 
  objectName: SGG PLANILUX 4 (6) SGG PLANILUX 4
  type: glazing
  red:
    numFrequency: 21
    transferFunction:
    - NaN
    - NaN
    - NaN
    - 21.8
    - 25.7
    - 24.2
    - 23.6
    - 25
    - 23.8
    - 21.5
    - 23.4
    - 26.7
    - 29.9
    - 34.1
    - 38
    - 39.1
    - 40.4
    - 37.5
    - 31.9
    - 36.5
    - 44.6
    max: 0
    min: 0
    curve:
      serializedVersion: 2
      m_Curve: []
      m_PreInfinity: 2
      m_PostInfinity: 2
      m_RotationOrder: 4
  comment: double-glazed unit for thermal insulation
  id: 1
  numFreq: 21
