{
    "name": "Unity.virtual-building-acoustics.Editor.Tests",
    "references": [
        "UnityEngine.TestRunner",
        "UnityEditor.TestRunner",
        "ita-aachen.virtual-building-acoustics"
    ],
    "includePlatforms": [
        "Editor"
    ],
    "excludePlatforms": [],
    "allowUnsafeCode": false,
    "overrideReferences": true,
    "precompiledReferences": [
        "nunit.framework.dll"
    ],
    "autoReferenced": false,
    "defineConstraints": [
        "UNITY_INCLUDE_TESTS"
    ],
    "versionDefines": [],
    "noEngineReferences": false
}